C:\Users\user\IdeaProjects\study\framework-demo\springboot\src\main\java\com\sk\boot\ServletInitializer.java
C:\Users\user\IdeaProjects\study\framework-demo\springboot\src\main\java\com\sk\boot\config\beans\MyAppConfig.java
C:\Users\user\IdeaProjects\study\framework-demo\springboot\src\main\java\com\sk\boot\controller\HelloController.java
C:\Users\user\IdeaProjects\study\framework-demo\springboot\src\main\java\com\sk\boot\service\HelloService.java
C:\Users\user\IdeaProjects\study\framework-demo\springboot\src\main\java\com\sk\boot\config\po\BookProperties.java
C:\Users\user\IdeaProjects\study\framework-demo\springboot\src\main\java\com\sk\boot\config\po\Dog.java
C:\Users\user\IdeaProjects\study\framework-demo\springboot\src\main\java\com\sk\boot\config\ProfileConfiguration.java
C:\Users\user\IdeaProjects\study\framework-demo\springboot\src\main\java\com\sk\boot\config\po\BookComponent.java
C:\Users\user\IdeaProjects\study\framework-demo\springboot\src\main\java\com\sk\boot\config\po\Person.java
C:\Users\user\IdeaProjects\study\framework-demo\springboot\src\main\java\com\sk\boot\MainApplication.java
