com\sk\designpattern\factory\demo\processor\DemoType3Service.class
com\sk\designpattern\factory\demo\processor\DemoType2Service.class
com\sk\designpattern\chain\ArgsContext.class
com\sk\designpattern\factory\demo\processor\DemoType1Service.class
com\sk\designpattern\proxy\cglib\ProxyFactory.class
com\sk\designpattern\strategy\Bootstrap.class
com\sk\designpattern\chain\impl\Chain1StrageImpl.class
com\sk\designpattern\proxy\cglib\DemoServiceImpl.class
com\sk\designpattern\strategy\enums\OrgChannelEnum.class
com\sk\designpattern\chain\aspectj\ChainAspect.class
com\sk\designpattern\strategy\DemoStrageManager.class
com\sk\designpattern\factory\demo\enums\ServiceEnum.class
com\sk\designpattern\proxy\jdk\DemoServiceImpl.class
com\sk\designpattern\proxy\cglib\ProxyFactory$1.class
com\sk\designpattern\proxy\cglib\Bootstrap.class
com\sk\designpattern\chain\impl\Chain4StrageImpl.class
com\sk\designpattern\strategy\impl\CtripDemoStrageProvider.class
com\sk\designpattern\strategy\impl\QunarDemoStrageProvider.class
com\sk\designpattern\factory\demo\DemoProcessService.class
com\sk\designpattern\proxy\jdk\ProxyFactory$1.class
com\sk\designpattern\factory\demo\Bootstrap.class
com\sk\designpattern\proxy\jdk\ProxyFactory.class
com\sk\designpattern\proxy\jdk\DemoService.class
com\sk\designpattern\chain\ChainStrageInterface.class
com\sk\designpattern\chain\ChainExecution.class
com\sk\designpattern\proxy\jdk\Bootstrap.class
com\sk\designpattern\chain\aspectj\ChainAnnoAspect.class
com\sk\designpattern\chain\aspectj\ChainMonitor.class
com\sk\designpattern\chain\impl\Chain2StrageImpl.class
com\sk\designpattern\factory\demo\processor\DemoFactoryServiceImpl.class
com\sk\designpattern\proxy\jdk\Myaspect.class
com\sk\designpattern\factory\demo\DemoFactoryService.class
com\sk\designpattern\proxy\cglib\Myaspect.class
com\sk\designpattern\chain\Bootstrap.class
com\sk\designpattern\chain\ChainConfig.class
com\sk\designpattern\chain\impl\Chain3StrageImpl.class
com\sk\designpattern\strategy\DemoStrageProvider.class
