C:\Users\user\IdeaProjects\study\framework-demo\spring4base\src\main\java\com\sk\designpattern\chain\aspectj\ChainAspect.java
C:\Users\user\IdeaProjects\study\framework-demo\spring4base\src\main\java\com\sk\designpattern\strategy\DemoStrageManager.java
C:\Users\user\IdeaProjects\study\framework-demo\spring4base\src\main\java\com\sk\designpattern\chain\impl\Chain1StrageImpl.java
C:\Users\user\IdeaProjects\study\framework-demo\spring4base\src\main\java\com\sk\designpattern\proxy\cglib\ProxyFactory.java
C:\Users\user\IdeaProjects\study\framework-demo\spring4base\src\main\java\com\sk\designpattern\proxy\jdk\DemoService.java
C:\Users\user\IdeaProjects\study\framework-demo\spring4base\src\main\java\com\sk\designpattern\chain\ChainConfig.java
C:\Users\user\IdeaProjects\study\framework-demo\spring4base\src\main\java\com\sk\designpattern\chain\impl\Chain4StrageImpl.java
C:\Users\user\IdeaProjects\study\framework-demo\spring4base\src\main\java\com\sk\designpattern\factory\demo\DemoFactoryService.java
C:\Users\user\IdeaProjects\study\framework-demo\spring4base\src\main\java\com\sk\designpattern\factory\demo\enums\ServiceEnum.java
C:\Users\user\IdeaProjects\study\framework-demo\spring4base\src\main\java\com\sk\designpattern\strategy\Bootstrap.java
C:\Users\user\IdeaProjects\study\framework-demo\spring4base\src\main\java\com\sk\designpattern\strategy\impl\CtripDemoStrageProvider.java
C:\Users\user\IdeaProjects\study\framework-demo\spring4base\src\main\java\com\sk\designpattern\strategy\DemoStrageProvider.java
C:\Users\user\IdeaProjects\study\framework-demo\spring4base\src\main\java\com\sk\designpattern\factory\demo\DemoProcessService.java
C:\Users\user\IdeaProjects\study\framework-demo\spring4base\src\main\java\com\sk\designpattern\proxy\jdk\Bootstrap.java
C:\Users\user\IdeaProjects\study\framework-demo\spring4base\src\main\java\com\sk\designpattern\strategy\impl\QunarDemoStrageProvider.java
C:\Users\user\IdeaProjects\study\framework-demo\spring4base\src\main\java\com\sk\designpattern\chain\impl\Chain3StrageImpl.java
C:\Users\user\IdeaProjects\study\framework-demo\spring4base\src\main\java\com\sk\designpattern\proxy\cglib\Bootstrap.java
C:\Users\user\IdeaProjects\study\framework-demo\spring4base\src\main\java\com\sk\designpattern\proxy\cglib\DemoServiceImpl.java
C:\Users\user\IdeaProjects\study\framework-demo\spring4base\src\main\java\com\sk\designpattern\chain\ChainStrageInterface.java
C:\Users\user\IdeaProjects\study\framework-demo\spring4base\src\main\java\com\sk\designpattern\chain\ChainExecution.java
C:\Users\user\IdeaProjects\study\framework-demo\spring4base\src\main\java\com\sk\designpattern\proxy\cglib\Myaspect.java
C:\Users\user\IdeaProjects\study\framework-demo\spring4base\src\main\java\com\sk\designpattern\proxy\jdk\ProxyFactory.java
C:\Users\user\IdeaProjects\study\framework-demo\spring4base\src\main\java\com\sk\designpattern\factory\demo\processor\DemoType2Service.java
C:\Users\user\IdeaProjects\study\framework-demo\spring4base\src\main\java\com\sk\designpattern\chain\ArgsContext.java
C:\Users\user\IdeaProjects\study\framework-demo\spring4base\src\main\java\com\sk\designpattern\factory\demo\processor\DemoType3Service.java
C:\Users\user\IdeaProjects\study\framework-demo\spring4base\src\main\java\com\sk\designpattern\chain\impl\Chain2StrageImpl.java
C:\Users\user\IdeaProjects\study\framework-demo\spring4base\src\main\java\com\sk\designpattern\factory\demo\Bootstrap.java
C:\Users\user\IdeaProjects\study\framework-demo\spring4base\src\main\java\com\sk\designpattern\proxy\jdk\Myaspect.java
C:\Users\user\IdeaProjects\study\framework-demo\spring4base\src\main\java\com\sk\designpattern\chain\aspectj\ChainAnnoAspect.java
C:\Users\user\IdeaProjects\study\framework-demo\spring4base\src\main\java\com\sk\designpattern\strategy\enums\OrgChannelEnum.java
C:\Users\user\IdeaProjects\study\framework-demo\spring4base\src\main\java\com\sk\designpattern\factory\demo\processor\DemoFactoryServiceImpl.java
C:\Users\user\IdeaProjects\study\framework-demo\spring4base\src\main\java\com\sk\designpattern\chain\aspectj\ChainMonitor.java
C:\Users\user\IdeaProjects\study\framework-demo\spring4base\src\main\java\com\sk\designpattern\chain\Bootstrap.java
C:\Users\user\IdeaProjects\study\framework-demo\spring4base\src\main\java\com\sk\designpattern\factory\demo\processor\DemoType1Service.java
C:\Users\user\IdeaProjects\study\framework-demo\spring4base\src\main\java\com\sk\designpattern\proxy\jdk\DemoServiceImpl.java
