com\sk\springmvc\anno\DemoRequestMapping.class
com\sk\springmvc\handler\Handler.class
com\sk\springmvc\DemoDispatcherServlet.class
com\sk\springmvc\handler\HandlerMapping.class
com\sk\springmvc\controller\PageController.class
